<?xml version="1.0" encoding="UTF-8" standalone="no"?>
<!-- Created with Inkscape (http://www.inkscape.org/) -->

<svg
   width="420mm"
   height="297mm"
   viewBox="0 0 420 297"
   version="1.1"
   id="svg5"
   inkscape:version="1.2 (dc2aedaf03, 2022-05-15)"
   sodipodi:docname="Fond_intro.svg"
   xmlns:inkscape="http://www.inkscape.org/namespaces/inkscape"
   xmlns:sodipodi="http://sodipodi.sourceforge.net/DTD/sodipodi-0.dtd"
   xmlns="http://www.w3.org/2000/svg"
   xmlns:svg="http://www.w3.org/2000/svg">
  <sodipodi:namedview
     id="namedview7"
     pagecolor="#ffffff"
     bordercolor="#656565"
     borderopacity="1"
     inkscape:pageshadow="0"
     inkscape:pageopacity="0"
     inkscape:pagecheckerboard="false"
     inkscape:document-units="mm"
     showgrid="false"
     showguides="true"
     inkscape:lockguides="true"
     inkscape:guide-bbox="true"
     inkscape:snap-midpoints="true"
     inkscape:snap-page="true"
     inkscape:snap-object-midpoints="true"
     inkscape:snap-bbox="true"
     inkscape:bbox-paths="true"
     borderlayer="false"
     inkscape:zoom="0.66501694"
     inkscape:cx="763.13845"
     inkscape:cy="652.61495"
     inkscape:window-width="1920"
     inkscape:window-height="1051"
     inkscape:window-x="0"
     inkscape:window-y="0"
     inkscape:window-maximized="1"
     inkscape:current-layer="g24961"
     inkscape:showpageshadow="0"
     inkscape:deskcolor="#d1d1d1">
    <inkscape:grid
       type="xygrid"
       id="grid928" />
    <sodipodi:guide
       position="210,148.5"
       orientation="-1,0"
       id="guide940"
       inkscape:label=""
       inkscape:locked="true"
       inkscape:color="rgb(0,0,255)" />
    <sodipodi:guide
       position="285.01903,148.5"
       orientation="0,1"
       id="guide996"
       inkscape:label=""
       inkscape:locked="true"
       inkscape:color="rgb(0,0,255)" />
  </sodipodi:namedview>
  <defs
     id="defs2">
    <rect
       x="706.59523"
       y="451.52089"
       width="245.89859"
       height="78.287638"
       id="rect45406" />
    <rect
       x="1099.8695"
       y="519.62416"
       width="271.76933"
       height="72.760576"
       id="rect7148" />
    <rect
       x="1135.2335"
       y="520.99306"
       width="251.04149"
       height="69.55086"
       id="rect3476" />
    <rect
       x="1099.8695"
       y="519.62415"
       width="271.76932"
       height="72.760574"
       id="rect7148-1" />
    <rect
       x="1099.8695"
       y="519.62415"
       width="271.76932"
       height="72.760574"
       id="rect7148-0" />
    <rect
       x="1099.8695"
       y="519.62415"
       width="271.76932"
       height="72.760574"
       id="rect7148-0-9" />
    <rect
       x="1099.8695"
       y="519.62415"
       width="346.47423"
       height="77.018788"
       id="rect7148-0-9-8" />
    <rect
       x="1099.8695"
       y="519.62415"
       width="271.76932"
       height="72.760574"
       id="rect7148-0-9-7" />
    <rect
       x="1099.8695"
       y="519.62415"
       width="271.76932"
       height="72.760574"
       id="rect7148-0-9-9" />
    <rect
       x="1099.8695"
       y="519.62415"
       width="271.76932"
       height="72.760574"
       id="rect7148-0-9-9-1" />
    <rect
       x="1099.8695"
       y="519.62415"
       width="271.76932"
       height="72.760574"
       id="rect7148-0-9-9-1-7" />
    <rect
       x="1099.8695"
       y="519.62415"
       width="271.76932"
       height="72.760574"
       id="rect7148-0-9-9-1-76" />
    <rect
       x="33.209736"
       y="686.60309"
       width="317.7207"
       height="38.729729"
       id="rect17915-6-9-8-3" />
    <rect
       x="33.209736"
       y="686.60309"
       width="317.7207"
       height="38.729729"
       id="rect17915-6-9-8-3-4" />
  </defs>
  <g
     inkscape:label="Calque 1"
     inkscape:groupmode="layer"
     id="layer1">
    <g
       id="g24961">
      <rect
         style="opacity:0.76;fill:#f97d00;fill-opacity:1;stroke-width:0.646308;stroke-linecap:round;stroke-opacity:0.945098;stop-color:#000000"
         id="rect8789"
         width="150.28331"
         height="148.5"
         x="269.71667"
         y="0" />
      <rect
         style="opacity:0.76;fill:#f97d00;fill-opacity:1;stroke-width:0.441507;stroke-linecap:round;stroke-opacity:0.945098;stop-color:#000000"
         id="rect8789-0"
         width="185.29643"
         height="56.203896"
         x="0"
         y="40.027435" />
      <rect
         style="opacity:0.76;fill:#f97d00;fill-opacity:1;stroke-width:0.441507;stroke-linecap:round;stroke-opacity:0.945098;stop-color:#000000"
         id="rect8789-0-4"
         width="185.29643"
         height="56.203896"
         x="24.703568"
         y="120.39805" />
      <rect
         style="opacity:0.76;fill:#f97d00;fill-opacity:1;stroke-width:0.441507;stroke-linecap:round;stroke-opacity:0.945098;stop-color:#000000"
         id="rect8789-0-4-7"
         width="185.29643"
         height="56.203896"
         x="0.29962096"
         y="148.5" />
      <path
         id="path846-8-0-1-5-3"
         style="opacity:0.76;fill:none;stroke:none;stroke-width:1.33141;stroke-linecap:round;stroke-opacity:1;stop-color:#000000"
         d="m 210,8.6286526 c 11.49669,4.2836154 25.5604,26.3430384 25.85897,62.4889624"
         sodipodi:nodetypes="cc" />
      <path
         id="path846-8-0-1-5-3-0"
         style="opacity:0.76;fill:none;stroke:none;stroke-width:1.33141;stroke-linecap:round;stroke-opacity:1;stop-color:#000000"
         d="m 210,286.18505 c -11.52739,-7.76495 -19.30562,-17.23016 -26.27884,-44.9561"
         sodipodi:nodetypes="cc" />
      <text
         xml:space="preserve"
         transform="scale(0.26458333)"
         id="text3474"
         style="line-height:1.25;font-family:Brill;font-size:9.33333333px;-inkscape-font-specification:Brill;white-space:pre;shape-inside:url(#rect3476)" />
      <ellipse
         style="opacity:0.76;fill:none;fill-opacity:0.941176;stroke:none;stroke-width:1.528;stroke-linecap:round;stroke-opacity:1;stop-color:#000000"
         id="path43122"
         cx="67.323959"
         cy="-248.23322"
         transform="rotate(110.09146)"
         rx="25.473"
         ry="25.473497" />
      <path
         id="path846-8-0-1-9"
         style="opacity:0.76;fill:none;stroke:none;stroke-width:1.33141;stroke-linecap:round;stroke-opacity:1;stop-color:#000000"
         d="m 358.54736,124.44778 c 19.74514,2.68701 48.13196,10.42875 53.98745,24.05222"
         sodipodi:nodetypes="cc" />
      <path
         id="path846-8-0-1-9-4"
         style="opacity:0.76;fill:none;stroke:none;stroke-width:1.33141;stroke-linecap:round;stroke-opacity:1;stop-color:#000000"
         d="m 344.06375,32.520646 c 17.56908,-9.403068 43.41016,-17.398233 56.1425,-9.797353"
         sodipodi:nodetypes="cc" />
      <path
         id="path846-8-0-1-9-4-1"
         style="opacity:0.76;fill:none;stroke:none;stroke-width:0.930705;stroke-linecap:round;stroke-opacity:1;stop-color:#000000"
         d="m 383.24985,244.79044 c 11.03873,8.49621 20.67525,23.03556 19.28073,33.64353"
         sodipodi:nodetypes="cc" />
      <text
         xml:space="preserve"
         transform="matrix(0.46833201,0,0,0.46835858,289.32549,-257.28276)"
         id="text17913-1-7-3-86"
         style="font-style:normal;font-variant:normal;font-weight:normal;font-stretch:normal;font-size:30.1297px;line-height:1.25;font-family:Brill;-inkscape-font-specification:'Brill, Normal';font-variant-ligatures:normal;font-variant-caps:normal;font-variant-numeric:normal;font-variant-east-asian:normal;white-space:pre;shape-inside:url(#rect17915-6-9-8-3-4);display:inline;fill:#ffffff;fill-opacity:1;stroke:none"><tspan
           x="33.208984"
           y="712.54519"
           id="tspan10684">Présentation</tspan></text>
    </g>
  </g>
</svg>
